NrByImportance,NrByLogic,Variable_Priority,Variable_Name,Variable_Description
28,1,3-Expert,ActionSeriesId,Unique anonymous identifier of an action series (ie multiple related actions)
29,2,3-Expert,ActionInstanceId,Unique anonymous identifier of an action instance (ie single action)
30,3,3-Expert,ActionInstanceVersion,Unique anonymous identifier of an action instance (ie single action)
11,4,1-Required,ActionDate,Date of action using format YYYYMMDD 
18,5,2-Additional,TimeStart,Start time of action using format HH:MM 
19,6,2-Additional,TimeStop,Stop time of action using format HH:MM 
1,7,1-Required,ActionTitle,"Title of action, e.g. “Bad Bank Action”"
2,8,1-Required,ActionDescription,"Description of action, e.g. “Die-in and ‘greenwashing’ with green paint at bank building”"
3,9,1-Required,ActionDemand,"Demand of action, e.g.”Stop funding fossil fuel extraction now!”"
4,10,1-Required,ActionIssueTag,"Curated tag for general issue targeted by action, e.g. “Climate Change”"
20,11,2-Additional,TypeOfAction,"Type of action including “Real Life”, “Virtual Life” or other "
21,12,2-Additional,ActionLevels,Action level according to confrontation and risk of legal consequences 
22,13,2-Additional,GeneSharpLevelA,Hierarchy level A (high-level) of 198 methods by Gene Sharp (1973) 
23,14,2-Additional,GeneSharpLevelB,Hierarchy level B (medium-level) of 198 methods by Gene Sharp (1973) 
24,15,2-Additional,GeneSharpLevelC,Hierarchy level C (low-level) of 198 methods by Gene Sharp (1973) 
5,16,1-Required,Affiliations,Affiliation of activists with organisations or movements 
6,17,1-Required,Activists,Estimated number of activists present at any time point of the action 
7,18,1-Required,ActivistsSourceType,"Source of number of activists, e.g. activist, organizer, media, police "
8,19,1-Required,ActivistsSourceLink,Link (or address) to source of number of activists [Protect yourself and others!]
9,20,1-Required,MediaLink,"Link (or address) to media file, e.g. image   [Protect yourself and others!]"
10,21,1-Required,InfoLink,Link (or address) to information about the action  [Protect yourself and others!]
17,22,1-Required,LocationSource,Source of location by manual entry or automatic retrieval via IP address
15,23,1-Required,LocationLongitude,"Longitude (East-West, in decimal degrees, cf GPS coordinates) of the action location at start "
16,24,1-Required,LocationLatitude,"Latitude (South-North, in decimal degrees, cf GPS coordinates) of the action location at start "
25,25,2-Additional,LocationStreet,Street name of the action location
26,26,2-Additional,LocationStreetNr,Street number of the action location
27,27,2-Additional,LocationPostcode,Post code of the action location
12,28,1-Required,LocationCity,City of the action location
13,29,1-Required,LocationCountry,Country of the action location 
14,30,1-Required,LocationContinent,Continent of the action location 
,31,3-Expert,TimeStampUTC,Date and time of data entry in Coordinated Universal Time (set automatically)
,32,3-Expert,AppVersion,Web app version  (set automatically)
